{
    "workbench.startupEditor": "newUntitledFile",
    "editor.minimap.enabled": false,
    "editor.tabSize": 2,
    "editor.tabCompletion": "on",
    "metals.javaHome": "/home/barry/.asdf/installs/java/amazon-corretto-11.0.7.10.1",
    "explorer.confirmDelete": false
}